(1, 'Workshop', 'EditIcon', 0, '2020-08-07 08:52:46', '2020-08-07 08:52:46'),
(2, 'Project', 'EditIcon', 0, '2020-08-07 08:52:46', '2020-08-07 08:52:46'),
(3, 'Request Order', 'EditIcon', 0, '2020-08-07 08:52:46', '2020-08-07 08:52:46'),
(4, 'Penjualan', 'EditIcon', 0, '2020-08-07 08:52:46', '2020-08-07 08:52:46'),
(5, 'Pembelian', 'EditIcon', 0, '2020-08-07 08:52:46', '2020-08-07 08:52:46'),
(6, 'Master Data', 'DatabaseIcon', 0, '2020-08-07 08:52:46', '2020-08-07 08:52:46'),
(7, 'Accounting', 'BookOpenIcon', 0, '2020-08-07 08:52:46', '2020-08-07 08:52:46'),
(8, 'Gudang', 'ArchiveIcon', 0, '2020-08-07 08:52:46', '2020-08-07 08:52:46'),
(9, 'Finance', 'DollarSignIcon', 0, '2020-08-07 08:52:46', '2020-08-07 08:52:46'),
(10, 'Reports', 'BookIcon', 0, '2020-08-07 08:52:46', '2020-08-07 08:52:46'),
(11, 'Settings', 'SettingsIcon', 0, '2020-08-07 08:52:46', '2020-08-07 08:52:46');