(1, 2, '1', '1', 'Aset', NULL, '1', '1', 'D', '2020-03-11 03:01:27', '2020-03-11 03:01:27'),
(2, 2, '1.1', '11', 'Aset Lancar', NULL, '2', '1', 'D', '2020-03-11 03:01:27', '2020-03-11 03:01:27'),
(3, 2, '1.1', '1101', 'Kas Kecil', NULL, '3', '11', 'D', '2020-03-11 03:01:27', '2020-03-11 03:01:27'),
(4, 2, '1.1', '1102', 'Kas di Bank Mandiri', NULL, '3', '11', 'D', '2020-03-11 03:01:27', '2020-03-11 03:01:27'),
(5, 2, '1.1', '1103', 'Kas di Bank BNI', NULL, '3', '11', 'D', '2020-03-11 03:01:27', '2020-03-11 03:01:27'),
(6, 2, '1.1', '1104', 'Kas di Bank CIMB Niaga', NULL, '3', '11', 'D', '2020-03-11 03:01:27', '2020-03-11 03:01:27'),
(7, 2, '1.1', '1105', 'Kas di Bank NISP', NULL, '3', '11', 'D', '2020-03-11 03:01:27', '2020-03-11 03:01:27'),
(8, 2, '1.1', '1106', 'Kas di Bank Panin', NULL, '3', '11', 'D', '2020-03-11 03:01:27', '2020-03-11 03:01:27'),
(9, 2, '1.1', '1107', 'Piutang Dagang', NULL, '3', '11', 'D', '2020-03-11 03:01:27', '2020-03-11 03:01:27'),
(10, 2, '1.1', '1108', 'Piutang Karyawan', NULL, '3', '11', 'D', '2020-03-11 03:01:27', '2020-03-11 03:01:27'),
(11, 2, '1.1', '1109', 'Piutang Lain-lain', NULL, '3', '11', 'D', '2020-03-11 03:01:27', '2020-03-11 03:01:27'),
(12, 2, '1.1', '1110', 'Cadangan Atas Kerugian Piutang', NULL, '3', '11', 'K', '2020-03-11 03:01:27', '2020-03-11 03:01:27'),
(13, 2, '1.1', '1111', 'Pph Pasal 21', NULL, '3', '11', 'D', '2020-03-11 03:01:27', '2020-03-11 03:01:27'),
(14, 2, '1.1', '1112', 'Pph Pasal 23', NULL, '3', '11', 'D', '2020-03-11 03:01:27', '2020-03-11 03:01:27'),
(15, 2, '1.1', '1113', 'Pph Pasal 25', NULL, '3', '11', 'D', '2020-03-11 03:01:27', '2020-03-11 03:01:27'),
(16, 2, '1.1', '1114', 'PPN Masukan', NULL, '3', '11', 'D', '2020-03-11 03:01:27', '2020-03-11 03:01:27'),
(17, 2, '1.1', '1115', 'Piutang PPN', NULL, '3', '11', 'D', '2020-03-11 03:01:27', '2020-03-11 03:01:27'),
(18, 2, '1.1', '1116', 'Persediaan Barang Awal', NULL, '3', '11', 'D', '2020-03-11 03:01:27', '2020-03-11 03:01:27'),
(19, 2, '1.1', '1117', 'Persediaan Barang Akhir', NULL, '3', '11', 'D', '2020-03-11 03:01:27', '2020-03-11 03:01:27'),
(20, 2, '1.1', '1118', 'Perlengkapan Kantor', NULL, '3', '11', 'D', '2020-03-11 03:01:27', '2020-03-11 03:01:27'),
(21, 2, '1.1', '1119', 'Uang Muka Pembelian', NULL, '3', '11', 'D', '2020-03-11 03:01:27', '2020-03-11 03:01:27'),
(22, 2, '1.1', '1120', 'Asuransi Dibayar Di Muka', NULL, '3', '11', 'D', '2020-03-11 03:01:27', '2020-03-11 03:01:27'),
(23, 2, '1.1', '1121', 'Sewa Dibayar Di Muka', NULL, '3', '11', 'D', '2020-03-11 03:01:27', '2020-03-11 03:01:27'),
(24, 2, '1.1', '1122', 'Beban dibayar dimuka', NULL, '3', '11', 'D', '2020-03-11 03:01:27', '2020-03-11 03:01:27'),
(25, 2, '1.2', '12', 'Aset Tetap', NULL, '2', '1', 'D', '2020-03-11 03:01:27', '2020-03-11 03:01:27'),
(26, 2, '1.2', '1201', 'Tanah', NULL, '3', '12', 'D', '2020-03-11 03:01:27', '2020-03-11 03:01:27'),
(27, 2, '1.2', '1202', 'Bangunan', NULL, '3', '12', 'D', '2020-03-11 03:01:27', '2020-03-11 03:01:27'),
(28, 2, '1.2', '1203', 'Kendaraan', NULL, '3', '12', 'D', '2020-03-11 03:01:27', '2020-03-11 03:01:27'),
(29, 2, '1.2', '1204', 'Inventaris Kantor', NULL, '3', '12', 'D', '2020-03-11 03:01:27', '2020-03-11 03:01:27'),
(30, 2, '1.2', '1205', 'Akumulasi Penyusutan', NULL, '3', '12', 'K', '2020-03-11 03:01:27', '2020-03-11 03:01:27'),
(31, 2, '1.2', '1206', 'Program Komputer', NULL, '3', '12', 'D', '2020-03-11 03:01:27', '2020-03-11 03:01:27'),
(32, 2, '1.2', '1207', 'Akumulasi Amortisasi', NULL, '3', '12', 'K', '2020-03-11 03:01:27', '2020-03-11 03:01:27'),
(33, 2, '1.3', '13', 'Aset Lain-Lain', NULL, '2', '13', 'D', '2020-03-11 03:01:27', '2020-03-11 03:01:27'),
(34, 2, '1.3', '1301', 'Bangunan dalam proses', NULL, '3', '13', 'D', '2020-03-11 03:01:27', '2020-03-11 03:01:27'),
(35, 2, '1.3', '1302', 'Aset Lancar Lainnya', NULL, '3', '13', 'D', '2020-03-11 03:01:27', '2020-03-11 03:01:27'),
(36, 2, '2', '2', 'Kewajiban', NULL, '1', '2', 'K', '2020-03-11 03:01:27', '2020-03-11 03:01:27'),
(37, 2, '2.1', '21', 'Kewajiban Lancar', NULL, '2', '2', 'K', '2020-03-11 03:01:27', '2020-03-11 03:01:27'),
(38, 2, '2.1', '2101', 'Utang Usaha', NULL, '3', '21', 'K', '2020-03-11 03:01:27', '2020-03-11 03:01:27'),
(39, 2, '2.1', '2102', 'Utang Pajak PPH 29', NULL, '3', '21', 'K', '2020-03-11 03:01:27', '2020-03-11 03:01:27'),
(40, 2, '2.1', '2103', 'PPH 21 Yang Dipotong', NULL, '3', '21', 'K', '2020-03-11 03:01:27', '2020-03-11 03:01:27'),
(41, 2, '2.1', '2104', 'PPH 22 Yang Dipotong', NULL, '3', '21', 'K', '2020-03-11 03:01:27', '2020-03-11 03:01:27'),
(42, 2, '2.1', '2105', 'PPH 23 Yang Dipotong', NULL, '3', '21', 'K', '2020-03-11 03:01:27', '2020-03-11 03:01:27'),
(43, 2, '2.1', '2106', 'Utang PPN', NULL, '3', '21', 'K', '2020-03-11 03:01:27', '2020-03-11 03:01:27'),
(44, 2, '2.1', '2107', 'PPN Keluaran', NULL, '3', '21', 'K', '2020-03-11 03:01:27', '2020-03-11 03:01:27'),
(45, 2, '2.1', '2108', 'PPh Final Psl 4 Ay 2', NULL, '3', '21', 'K', '2020-03-11 03:01:27', '2020-03-11 03:01:27'),
(46, 2, '2.1', '2109', 'PPh 25', NULL, '3', '21', 'K', '2020-03-11 03:01:27', '2020-03-11 03:01:27'),
(47, 2, '2.1', '2110', 'Pendapatan diterima dimuka', NULL, '3', '21', 'K', '2020-03-11 03:01:27', '2020-03-11 03:01:27'),
(48, 2, '2.1', '2111', 'Uang Muka Pelanggan', NULL, '3', '21', 'K', '2020-03-11 03:01:27', '2020-03-11 03:01:27'),
(49, 2, '2.1', '2112', 'Biaya yg masih harus dibayar', NULL, '3', '21', 'K', '2020-03-11 03:01:27', '2020-03-11 03:01:27'),
(50, 2, '2.2', '22', 'Kewajiban Jangka Panjang', NULL, '2', '2', 'K', '2020-03-11 03:01:27', '2020-06-25 21:59:09'),
(51, 2, '2.2', '2201', 'Utang Bank', NULL, '3', '22', 'K', '2020-03-11 03:01:27', '2020-03-11 03:01:27'),
(52, 2, '2.2', '2202', 'Utang Afiliasi', NULL, '3', '22', 'K', '2020-03-11 03:01:27', '2020-03-11 03:01:27'),
(53, 2, '2.2', '2203', 'Utang Lain-lain', NULL, '3', '22', 'K', '2020-03-11 03:01:27', '2020-03-11 03:01:27'),
(54, 2, '3', '3', 'Ekuitas', NULL, '1', '3', 'K', '2020-03-11 03:01:27', '2020-06-25 21:59:26'),
(55, 2, '3.1', '31', 'Modal/Ekuitas', NULL, '2', '3', 'K', '2020-03-11 03:01:27', '2020-06-25 21:59:38'),
(56, 2, '3.1', '3101', 'Modal Saham', NULL, '3', '31', 'K', '2020-03-11 03:01:27', '2020-03-11 03:01:27'),
(57, 2, '3.1', '3102', 'Tambahan Modal Disetor', NULL, '3', '31', 'K', '2020-03-11 03:01:27', '2020-03-11 03:01:27'),
(58, 2, '3.2', '32', 'Laba Rugi', NULL, '2', '32', 'K', '2020-03-11 03:01:27', '2020-03-11 03:01:27'),
(59, 2, '3.2', '3201', 'Laba (Rugi) ditahan', NULL, '3', '32', 'K', '2020-03-11 03:01:27', '2020-03-11 03:01:27'),
(60, 2, '3.2', '3202', 'Laba (Rugi) Periode Berjalan', NULL, '3', '32', 'K', '2020-03-11 03:01:27', '2020-03-11 03:01:27'),
(61, 2, '3.2', '3203', 'Dividen', NULL, '3', '32', 'K', '2020-03-11 03:01:27', '2020-03-11 03:01:27'),
(62, 2, '4', '4', 'Pendapatan', NULL, '1', '4', 'K', '2020-03-11 03:01:27', '2020-03-11 03:01:27'),
(63, 2, '4.1', '41', 'Pendapatan Usaha', NULL, '2', '4', 'K', '2020-03-11 03:01:27', '2020-03-11 03:01:27'),
(64, 2, '4.1', '4101', 'Penjualan Barang Dagang', NULL, '3', '41', 'K', '2020-03-11 03:01:27', '2020-03-11 03:01:27'),
(65, 2, '4.1', '4102', 'Potongan Penjualan', NULL, '3', '41', 'D', '2020-03-11 03:01:27', '2020-03-11 03:01:27'),
(66, 2, '4.1', '4103', 'Retur Penjualan', NULL, '3', '41', 'D', '2020-03-11 03:01:27', '2020-03-11 03:01:27'),
(67, 2, '5', '5', 'Biaya atas Pendapatan', NULL, '1', '5', 'D', '2020-03-11 03:01:27', '2020-03-11 03:01:27'),
(68, 2, '5.1', '51', 'Harga Pokok Penjualan', NULL, '2', '5', 'D', '2020-03-11 03:01:27', '2020-03-11 03:01:27'),
(69, 2, '5.1', '5101', 'Pembelian', NULL, '3', '51', 'D', '2020-03-11 03:01:27', '2020-03-11 03:01:27'),
(70, 2, '5.1', '5102', 'Potongan Pembelian', NULL, '3', '51', 'K', '2020-03-11 03:01:27', '2020-03-11 03:01:27'),
(71, 2, '5.1', '5103', 'Retur Pembelian', NULL, '3', '51', 'K', '2020-03-11 03:01:27', '2020-03-11 03:01:27'),
(72, 2, '5.1', '5104', 'Biaya Angkut Pembelian', NULL, '3', '51', 'D', '2020-03-11 03:01:27', '2020-03-11 03:01:27'),
(73, 2, '5.1', '5105', 'Harga Pokok Penjualan', NULL, '3', '51', 'D', '2020-03-11 03:01:27', '2020-03-11 03:01:27'),
(74, 2, '6', '6', 'Biaya Usaha', NULL, '1', '6', 'D', '2020-03-11 03:01:27', '2020-03-11 03:01:27'),
(75, 2, '6.1', '61', 'Beban Operasional', NULL, '2', '6', 'D', '2020-03-11 03:01:27', '2020-03-11 03:01:27'),
(76, 2, '6.1', '6101', 'Beban Upah, Gaji & THR ', NULL, '3', '61', 'D', '2020-03-11 03:01:27', '2020-03-11 03:01:27'),
(77, 2, '6.1', '6102', 'Beban Komisi Penjualan', NULL, '3', '61', 'D', '2020-03-11 03:01:27', '2020-03-11 03:01:27'),
(78, 2, '6.1', '6103', 'Beban Konsultan', NULL, '3', '61', 'D', '2020-03-11 03:01:27', '2020-03-11 03:01:27'),
(79, 2, '6.1', '6104', 'Beban PPh 21', NULL, '3', '61', 'D', '2020-03-11 03:01:27', '2020-03-11 03:01:27'),
(80, 2, '6.1', '6105', 'Beban BPJS', NULL, '3', '61', 'D', '2020-03-11 03:01:27', '2020-03-11 03:01:27'),
(81, 2, '6.1', '6106', 'Beban Pengiriman', NULL, '3', '61', 'D', '2020-03-11 03:01:27', '2020-03-11 03:01:27'),
(82, 2, '6.1', '6107', 'Beban Konsumsi', NULL, '3', '61', 'D', '2020-03-11 03:01:27', '2020-03-11 03:01:27'),
(83, 2, '6.1', '6108', 'Beban Perlengkapan', NULL, '3', '61', 'D', '2020-03-11 03:01:27', '2020-03-11 03:01:27'),
(84, 2, '6.1', '6109', 'Beban Telepon & Internet', NULL, '2', '61', 'D', '2020-03-11 03:01:27', '2020-03-11 03:01:27'),
(85, 2, '6.1', '6110', 'Beban PLN', NULL, '3', '61', 'D', '2020-03-11 03:01:27', '2020-03-11 03:01:27'),
(86, 2, '6.1', '6111', 'Beban PDAM', NULL, '3', '61', 'D', '2020-03-11 03:01:27', '2020-03-11 03:01:27'),
(87, 2, '6.1', '6112', 'Beban Sewa', NULL, '3', '61', 'D', '2020-03-11 03:01:27', '2020-03-11 03:01:27'),
(88, 2, '6.1', '6113', 'Beban Perawatan Kendaraan', NULL, '3', '61', 'D', '2020-03-11 03:01:27', '2020-03-11 03:01:27'),
(89, 2, '6.1', '6114', 'Beban Kebersihan', NULL, '3', '61', 'D', '2020-03-11 03:01:27', '2020-03-11 03:01:27'),
(90, 2, '6.1', '6115', 'Beban BBM & Retribusi ', NULL, '3', '61', 'D', '2020-03-11 03:01:27', '2020-03-11 03:01:27'),
(91, 2, '6.1', '6116', 'Beban Langganan ', NULL, '3', '61', 'D', '2020-03-11 03:01:27', '2020-03-11 03:01:27'),
(92, 2, '6.1', '6117', 'Beban Perjalanan Dinas', NULL, '3', '61', 'D', '2020-03-11 03:01:27', '2020-03-11 03:01:27'),
(93, 2, '6.1', '6118', 'Beban Asuransi', NULL, '3', '61', 'D', '2020-03-11 03:01:27', '2020-03-11 03:01:27'),
(94, 2, '6.1', '6119', 'Beban Perizinan ', NULL, '3', '61', 'D', '2020-03-11 03:01:27', '2020-03-11 03:01:27'),
(95, 2, '6.1', '6120', 'Beban Penyusutan', NULL, '3', '61', 'D', '2020-03-11 03:01:27', '2020-03-11 03:01:27'),
(96, 2, '7', '7', 'Pendapatan di Luar Usaha', NULL, '1', '7', 'K', '2020-03-11 03:01:27', '2020-03-11 03:01:27'),
(97, 2, '7.1', '71', 'Pendapatan di Luar Usaha', NULL, '2', '7', 'K', '2020-03-11 03:01:27', '2020-03-11 03:01:27'),
(98, 2, '7.1', '7101', 'Pendapatan Bunga Bank', NULL, '3', '71', 'K', '2020-03-11 03:01:27', '2020-03-11 03:01:27'),
(99, 2, '7.1', '7102', 'Pendapatan Lain-lain', NULL, '3', '71', 'K', '2020-03-11 03:01:27', '2020-03-11 03:01:27'),
(100, 2, '8', '8', 'Beban di Luar Usaha', NULL, '1', '8', 'D', '2020-03-11 03:01:27', '2020-03-11 03:01:27'),
(101, 2, '8.1', '81', 'Beban di Luar Usaha', NULL, '2', '8', 'D', '2020-03-11 03:01:27', '2020-03-11 03:01:27'),
(102, 2, '8.1', '8101', 'Pajak Bunga Bank', NULL, '3', '81', 'D', '2020-03-11 03:01:27', '2020-03-11 03:01:27'),
(103, 2, '8.1', '8102', 'Beban Adm Bank & Lainnya', NULL, '3', '81', 'D', '2020-03-11 03:01:27', '2020-03-11 03:01:27'),
(104, 2, '8.1', '8103', 'Beban bunga pinjaman', NULL, '3', '81', 'D', '2020-03-11 03:01:27', '2020-03-11 03:01:27'),
(105, 2, '9', '9', 'Pajak Penghasilan', NULL, '1', '9', 'D', '2020-03-11 03:01:27', '2020-03-11 03:01:27'),
(106, 2, '9.1', '91', 'Beban Pajak Penghasilan', NULL, '2', '9', 'D', '2020-03-11 03:01:27', '2020-03-11 03:01:27'),
(107, 2, '9.1', '9101', 'Beban Pajak Penghasilan', NULL, '3', '91', 'D', '2020-03-11 03:01:27', '2020-03-11 03:01:27'),
(108, 2, '3.2', '3204', 'Ikhtisar Laba Rugi', NULL, '3', '32', 'K', '2020-07-01 21:55:27', '2020-07-01 21:55:45');
